578728 351128 470
721970 913667 525
927852 900435 476
38583 489745 449
528449 539915 377
913096 761622 525
954843 311662 525
252506 952778 525
43269 62940 340
373148 823065 509
729505 958560 525
749659 684134 504
731963 225765 509
329523 888083 525
87956 892299 525
784380 46396 509
102750 385160 443
326749 586534 470
314102 78962 443
10376 177418 383
492769 895505 525
438368 520662 470
778920 214887 509
447165 809598 509
916797 177290 525
976906 535349 525
188685 998445 525
844532 394949 525
4763 378043 443
416472 680896 509
89645 809602 509
369945 324446 441
300055 342419 384
404670 357462 436
757768 1762 509
299684 381409 441
285569 767126 509
226304 759551 509
291999 954381 525
404387 206996 443
894707 637464 525
347896 164461 443
773641 780266 437
148657 526921 470
421860 285923 449
496843 206053 449
572459 520024 452
793663 684648 504
929828 190923 525
553168 328565 470
963276 195349 525
801864 270912 509
862337 22621 525
405960 380898 436
900434 712471 525
298467 867207 525
131483 521765 470
721041 124769 509
160143 808813 509
39264 313196 443
281292 529628 470
99872 202475 383
54614 683288 509
998555 191615 525
64115 161412 383
48955 213783 383
354983 893707 525
108614 229182 386
325798 56893 443
30813 217093 386
220623 555032 470
191001 757714 509
530667 844712 525
489473 754849 509
988455 841376 507
340459 380451 441
245641 942231 525
194872 189729 360
985050 228441 525
19414 514516 470
182490 597543 470
230104 393481 443
775400 556675 509
33770 122423 354
20350 63218 340
527594 713121 509
367735 907064 525
933199 151827 525
18376 743726 509
545104 740949 509
172292 467754 449
226698 748110 509
374184 235694 441
629712 406859 509
601867 319095 470
747094 322987 509
396332 453082 449
439127 78076 449
560972 83938 470
629837 6423 509
245266 854629 525
143991 612152 470
789191 242874 509
956403 802377 525
414855 236220 449
718184 347597 509
623827 816293 509
565767 202446 470
387803 857787 525
598354 224425 470
129188 476464 449
93905 470818 449
324969 290194 384
586094 677567 509
182137 184342 334
471265 87613 449
867931 883011 432
773216 338883 509
340638 250054 407
160311 925739 525
50872 598984 470
507159 665647 509
862316 882158 432
997930 136519 525
125782 77315 354
486474 981294 525
902204 816325 525
685285 886312 525
659558 358011 509
505914 553677 470
163863 517678 470
420047 864033 525
978746 380398 525
688886 660600 442
503759 92481 449
114257 619033 470
108700 739072 509
943324 146488 525
734119 742187 424
618546 621527 372
847939 117355 525
746070 794316 468
763852 787923 468
858979 580771 525
80814 689494 509
227006 607653 470
399709 223950 443
438485 718999 509
825429 242971 509
874946 741558 525
493551 381039 449
520748 600593 452
418973 717001 509
177642 50158 383
999380 592850 525
794693 102597 509
854433 321110 525
707343 357570 509
227315 828240 509
871377 169382 525
174686 127353 383
615410 365803 470
509620 356275 449
490779 771247 509
259864 275615 407
440440 385496 449
715831 989220 525
661830 269794 509
720822 301761 509
754034 236367 509
56044 180192 383
910911 18869 525
875007 514399 525
354994 605797 470
544304 468311 470
736020 445331 509
275609 46614 443
209945 32388 383
339160 186641 443
45167 672024 509
665104 16197 509
629139 763250 504
766747 615396 509
133750 461225 449
777194 960751 525
214840 188827 373
207399 217443 386
902536 523937 525
82736 853972 525
308069 95649 443
423938 318696 449
307888 915404 525
783997 942805 525
683796 684448 380
571251 773905 509
338998 140816 443
706617 722968 411
225660 230106 368
908700 349339 525
367862 175623 443
827998 789581 468
408801 997182 525
108125 266587 443
233830 37293 443
953372 563109 525
687292 479932 509
377501 331162 441
329633 308984 384
885457 515998 525
621892 404044 470
673070 730515 504
287413 824443 509
375302 347474 410
807042 96327 509
973460 99007 525
371199 469421 449
557463 368126 470
265984 300295 407
496907 708051 509
595411 584238 403
949129 301593 525
163571 860748 525
947577 321566 525
127350 977241 525
870455 880813 432
479276 729682 509
180441 428995 449
799310 398641 509
182842 314977 443
727899 594661 509
307631 84871 443
258931 444176 449
515801 548654 452
529674 740364 509
833991 620791 509
9904 832630 509
170288 374250 443
532723 792421 509
820830 988613 525
861384 509465 525
802004 563044 509
352272 812232 509
638383 974483 525
437615 189610 449
476044 323405 449
990056 487807 525
186700 72217 383
492973 820878 509
576861 8458 470
695446 804904 504
799504 811842 406
807088 978512 525
361684 23498 443
756248 988294 525
304960 905655 525
221133 35937 386
659023 192771 509
434960 55018 449
775532 765055 468
197982 159764 370
484311 387246 449
543589 385974 470
198953 715266 509
226856 862075 525
104507 784788 509
118188 875956 525
427545 571972 470
705510 117552 509
168587 275294 443
189411 857712 525
920049 955407 507
320634 594911 470
783871 920613 525
17295 312238 443
539725 845288 525
101289 562331 470
20282 364141 443
450449 784103 509
592473 361377 470
55470 507695 449
975196 510359 525
238634 950478 525
450062 486873 444
649179 632101 416
769503 869370 525
61882 183997 383
468302 849236 525
790557 96558 509
557505 328377 470
404964 270295 441
971508 869111 507
132359 852993 525
368287 694978 509
386593 316182 441
32669 721632 509
534797 453057 470
516540 838435 525
618476 266024 470
118013 20506 354
132538 506881 449
